…
``` r
print(apt_buildings, n=10)
```

    ## # A tibble: 3,455 × 37
    ##       id air_c…¹ ameni…² balco…³ barri…⁴ bike_…⁵ exter…⁶ fire_…⁷ garba…⁸ heati…⁹
    ##    <dbl> <chr>   <chr>   <chr>   <chr>   <chr>   <chr>   <chr>   <chr>   <chr>  
    ##  1 10359 NONE    Outdoo… YES     YES     0 indo… NO      YES     YES     HOT WA…
    ##  2 10360 NONE    Outdoo… YES     NO      0 indo… NO      YES     YES     HOT WA…
    ##  3 10361 NONE    <NA>    YES     NO      Not Av… NO      YES     NO      HOT WA…
    ##  4 10362 NONE    <NA>    YES     YES     Not Av… YES     YES     NO      HOT WA…
    ##  5 10363 NONE    <NA>    NO      NO      12 ind… NO      YES     NO      HOT WA…
    ##  6 10364 NONE    <NA>    NO      NO      Not Av… <NA>    YES     NO      HOT WA…
    ##  7 10365 NONE    <NA>    NO      YES     Not Av… NO      YES     NO      HOT WA…
    ##  8 10366 CENTRA… Indoor… YES     NO      Not Av… NO      YES     YES     HOT WA…
    ##  9 10367 NONE    <NA>    YES     YES     0 indo… NO      YES     YES     ELECTR…
    ## 10 10368 NONE    Indoor… YES     YES     Not Av… NO      YES     NO      HOT WA…
    ## # … with 3,445 more rows, 27 more variables: intercom <chr>,
    ## #   laundry_room <chr>, locker_or_storage_room <chr>, no_of_elevators <dbl>,
    ## #   parking_type <chr>, pets_allowed <chr>, prop_management_company_name <chr>,
    ## #   property_type <chr>, rsn <dbl>, separate_gas_meters <chr>,
    ## #   separate_hydro_meters <chr>, separate_water_meters <chr>,
    ## #   site_address <chr>, sprinkler_system <chr>, visitor_parking <chr>,
    ## #   ward <chr>, window_type <chr>, year_built <dbl>, year_registered <dbl>, …
…
    ## # A tibble: 6 × 4
    ##   no_of_units no_of_storeys no_of_elevators no_of_accessible_parking_spaces
    ##         <dbl>         <dbl>           <dbl>                           <dbl>
    ## 1         218            17               3                               8
    ## 2         206            14               3                              10
    ## 3          34             4               0                              20
    ## 4          42             5               1                              42
    ## 5          25             4               0                              12
    ## 6          34             4               0                               0

``` r
filter(apt_buildings3, no_of_elevators >= 1) %>% arrange(no_of_elevators)
```

    ## # A tibble: 2,113 × 4
    ##    no_of_units no_of_storeys no_of_elevators no_of_accessible_parking_spaces
    ##          <dbl>         <dbl>           <dbl>                           <dbl>
    ##  1          42             5               1                              42
    ##  2          79             6               1                              NA
    ##  3          44             4               1                               0
    ##  4          39             4               1                               0
    ##  5          25             4               1                               0
    ##  6          40             4               1                               1
    ##  7          61             5               1                              53
    ##  8          49             7               1                               0
    ##  9          59            10               1                               0
    ## 10          40             4               1                               6
    ## # … with 2,103 more rows
…
