…
``` r
print(apt_buildings, n=10)
```

    ## # A tibble: 3,455 × 37
    ##       id air_c…¹ ameni…² balco…³ barri…⁴ bike_…⁵ exter…⁶ fire_…⁷ garba…⁸ heati…⁹
    ##    <dbl> <chr>   <chr>   <chr>   <chr>   <chr>   <chr>   <chr>   <chr>   <chr>  
    ##  1 10359 NONE    Outdoo… YES     YES     0 indo… NO      YES     YES     HOT WA…
    ##  2 10360 NONE    Outdoo… YES     NO      0 indo… NO      YES     YES     HOT WA…
    ##  3 10361 NONE    <NA>    YES     NO      Not Av… NO      YES     NO      HOT WA…
    ##  4 10362 NONE    <NA>    YES     YES     Not Av… YES     YES     NO      HOT WA…
    ##  5 10363 NONE    <NA>    NO      NO      12 ind… NO      YES     NO      HOT WA…
    ##  6 10364 NONE    <NA>    NO      NO      Not Av… <NA>    YES     NO      HOT WA…
    ##  7 10365 NONE    <NA>    NO      YES     Not Av… NO      YES     NO      HOT WA…
    ##  8 10366 CENTRA… Indoor… YES     NO      Not Av… NO      YES     YES     HOT WA…
    ##  9 10367 NONE    <NA>    YES     YES     0 indo… NO      YES     YES     ELECTR…
    ## 10 10368 NONE    Indoor… YES     YES     Not Av… NO      YES     NO      HOT WA…
    ## # … with 3,445 more rows, 27 more variables: intercom <chr>,
    ## #   laundry_room <chr>, locker_or_storage_room <chr>, no_of_elevators <dbl>,
    ## #   parking_type <chr>, pets_allowed <chr>, prop_management_company_name <chr>,
    ## #   property_type <chr>, rsn <dbl>, separate_gas_meters <chr>,
    ## #   separate_hydro_meters <chr>, separate_water_meters <chr>,
    ## #   site_address <chr>, sprinkler_system <chr>, visitor_parking <chr>,
    ## #   ward <chr>, window_type <chr>, year_built <dbl>, year_registered <dbl>, …
…
``` r
#5. Filter observations in your data according to your own criteria. Think of what you'd like to explore - again, if this was the `titanic` dataset, I may want to narrow my search down to passengers born in a particular year...
filter(apt_buildings, no_of_storeys>10)
```

    ## # A tibble: 848 × 37
    ##       id air_c…¹ ameni…² balco…³ barri…⁴ bike_…⁵ exter…⁶ fire_…⁷ garba…⁸ heati…⁹
    ##    <dbl> <chr>   <chr>   <chr>   <chr>   <chr>   <chr>   <chr>   <chr>   <chr>  
    ##  1 10359 NONE    Outdoo… YES     YES     0 indo… NO      YES     YES     HOT WA…
    ##  2 10360 NONE    Outdoo… YES     NO      0 indo… NO      YES     YES     HOT WA…
    ##  3 10367 NONE    <NA>    YES     YES     0 indo… NO      YES     YES     ELECTR…
    ##  4 10377 CENTRA… Indoor… YES     YES     Not Av… NO      YES     YES     HOT WA…
    ##  5 10379 NONE    <NA>    YES     NO      Not Av… YES     YES     YES     HOT WA…
    ##  6 10383 NONE    <NA>    YES     NO      Not Av… NO      YES     YES     HOT WA…
    ##  7 10384 NONE    <NA>    YES     YES     Not Av… YES     YES     YES     HOT WA…
    ##  8 10388 NONE    Outdoo… NO      YES     Not Av… NO      YES     NO      HOT WA…
    ##  9 10391 INDIVI… <NA>    YES     YES     75 ind… NO      YES     YES     HOT WA…
    ## 10 10394 NONE    <NA>    YES     NO      Not Av… NO      YES     YES     ELECTR…
    ## # … with 838 more rows, 27 more variables: intercom <chr>, laundry_room <chr>,
    ## #   locker_or_storage_room <chr>, no_of_elevators <dbl>, parking_type <chr>,
    ## #   pets_allowed <chr>, prop_management_company_name <chr>,
    ## #   property_type <chr>, rsn <dbl>, separate_gas_meters <chr>,
    ## #   separate_hydro_meters <chr>, separate_water_meters <chr>,
    ## #   site_address <chr>, sprinkler_system <chr>, visitor_parking <chr>,
    ## #   ward <chr>, window_type <chr>, year_built <dbl>, year_registered <dbl>, …
…
